{
    "pattern": "he hatter.\n\n'it isn't mine,' said the hatter.\n\n'stolen!' the king exclaimed, turning to the jury, wh",
    "generated": "e wart to the woete  \nnhi whe woet toe toet so the toet so the tore th the woete  \n\n'                                                                                                                                                                                                                                                                                                                                                                                                                                                                                                                                                                                                                                                                                                                                                                                                                                                                                                                                                   "
}