{
    "pattern": "hat was\ngoing to happen next. first, she tried to look down and make out what\nshe was coming to, but",
    "generated": " she was how oo the woole toene to tee the had no tae io the sooee  the had not the woole the was oo the whste to tee the har hn the woode  the was ao ilr ao the woole   the sast to tee the har of the sooee of the sooe.'\n\n'i wh tee toene t see woul ' said the monk  she katter went on, ''ie tou dn wou dan tou den ' said the monke   io would the sase thine ' said the matth hare.\n\n'ie tou d vooe the dane'' said the monke  'ii i so tee would ' said the monke   io would the sase thine ' said the monke   io would the sase thine ' said the manth raree hare ler herd to the shoee the had not th the sooee the was oo the whste the had not to tee thet she was ho a lott of the sas of the sooee. \n'the would the sabe thing ' said the monke   io would the sase thine ' said the matth hare.\n\n'ie tou d vore the dane'' said the monke  'ii i so tee would ' said the monke   io would the sase thine ' said the monke   io would the sase thine ' said the manth raree hare ler herd to the shoee the had not th the"
}